Vignette 1: From Design to Dataframe
…
Load(2) x Speed(3) x 6 Item x 6 Subj

This is a completely crossed design. Note the difference between specification of levels for fixed and instances for random factors. The product of numbers in the formula informs about the number of observations generated by the design. In this case: 216 observations.

design1 <- 
  fixed.factor("Speed", levels=c("slow", "medium", "fast")) +
  fixed.factor("Load",  levels=c("yes", "no")) +
  random.factor("Subj", instances=6) +    
  random.factor("Item", instances=6)    

codes1 <- arrange(design.codes(design1), Subj, Item)[c(3, 4, 2, 1)]
codes1

## # A tibble: 216 x 4
##    Subj  Item  Load  Speed 
##    <fct> <fct> <fct> <fct> 
##  1 Subj1 Item1 yes   slow  
##  2 Subj1 Item1 yes   medium
##  3 Subj1 Item1 yes   fast  
##  4 Subj1 Item1 no    slow  
##  5 Subj1 Item1 no    medium
##  6 Subj1 Item1 no    fast  
##  7 Subj1 Item2 yes   slow  
##  8 Subj1 Item2 yes   medium
##  9 Subj1 Item2 yes   fast  
## 10 Subj1 Item2 no    slow  
## # … with 206 more rows
…
Design formula:

Type(2) x Speed(3) x 3 Item[Type] x 6 Subj

We read the item-part of this formula: “3 Items nested under levels of Type.” The total number of different instances for the random factor Item is 3 items x 2 levels of Type, that is 6 items. The design generates 108 observations; it is no longer completely crossed.

design2 <- fixed.factor("Speed", levels=c("slow", "medium", "fast")) +
  fixed.factor("Type",  levels=c("simple", "complex")) +
  random.factor("Subj", instances=6) +   
  random.factor("Item", groups="Type", instances=3)

codes2 <- arrange(design.codes(design2), Subj, Item)[c(3, 4, 1, 2)]
codes2

## # A tibble: 108 x 4
##    Subj  Item  Type    Speed 
##    <fct> <fct> <fct>   <fct> 
##  1 Subj1 Item1 complex slow  
##  2 Subj1 Item1 complex medium
##  3 Subj1 Item1 complex fast  
##  4 Subj1 Item2 complex slow  
##  5 Subj1 Item2 complex medium
##  6 Subj1 Item2 complex fast  
##  7 Subj1 Item3 complex slow  
##  8 Subj1 Item3 complex medium
##  9 Subj1 Item3 complex fast  
## 10 Subj1 Item4 simple  slow  
## # … with 98 more rows
…
2.3 Age between-subject/within-item, Speed within-subject/within-item; no counterbalancing

In this example, we replace the factor Load (or Type) with a between-subject factor Age, assuming that half the subjects are young and the other half old.

design3 <- 
  fixed.factor("Speed", levels=c("slow", "medium", "fast")) +
  fixed.factor("Age",  levels=c("young", "old")) +
  random.factor("Item", instances=6) +
  random.factor("Subj", groups="Age", instances=3) 

codes3 <- arrange(design.codes(design3), Subj, Item)[c(4, 3, 2, 1)]
codes3

## # A tibble: 108 x 4
##    Subj  Item  Speed  Age  
##    <fct> <fct> <fct>  <fct>
##  1 Subj1 Item1 slow   old  
##  2 Subj1 Item1 medium old  
##  3 Subj1 Item1 fast   old  
##  4 Subj1 Item2 slow   old  
##  5 Subj1 Item2 medium old  
##  6 Subj1 Item2 fast   old  
##  7 Subj1 Item3 slow   old  
##  8 Subj1 Item3 medium old  
##  9 Subj1 Item3 fast   old  
## 10 Subj1 Item4 fast   old  
## # … with 98 more rows
…
Age(2) x Speed(3) x 6 Item x 10 Subj[Age x Speed]

The total number of subjects is 10 x 2 x 3 = 60. This design generates 360 observations.

design4 <- 
  fixed.factor("Speed", levels=c("slow", "medium", "fast")) +
  fixed.factor("Age",  levels=c("simple", "complex")) +
  random.factor("Subj", groups=c("Age", "Speed"), instances=10) +
  random.factor("Item", instances=6)   

codes4 <- arrange(design.codes(design4), Subj, Item)[c(3, 4, 2, 1)]
codes4

## # A tibble: 360 x 4
##    Subj   Item  Age     Speed
##    <fct>  <fct> <fct>   <fct>
##  1 Subj01 Item1 complex fast 
##  2 Subj01 Item2 complex fast 
##  3 Subj01 Item3 complex fast 
##  4 Subj01 Item4 complex fast 
##  5 Subj01 Item5 complex fast 
##  6 Subj01 Item6 complex fast 
##  7 Subj02 Item1 complex fast 
##  8 Subj02 Item2 complex fast 
##  9 Subj02 Item3 complex fast 
## 10 Subj02 Item4 complex fast 
## # … with 350 more rows
…
We have 1 item and 1 subject nested under the levels of the Speed x Load design. There are 36 instances of the random factor resulting from the multiplication of the random factors Item and Subj. The design generates 3 x 2 x 1 x 1 x (3 x 2) 36 observations.

design5 <- 
  fixed.factor("Speed", levels=c("slow", "medium", "fast")) +
  fixed.factor("Load",  levels=c("simple", "complex")) +
  random.factor("Subj", instances=1) + 
  random.factor("Item", instances=1) +
  random.factor(c("Subj", "Item"), groups=c("Speed", "Load"))

codes5 <- arrange(design.codes(design5), Subj, Item)[c(3, 4, 1, 2)]
codes5

## # A tibble: 36 x 4
##    Subj  Item  Speed  Load   
##    <fct> <fct> <fct>  <fct>  
##  1 Subj1 Item1 slow   simple 
##  2 Subj1 Item2 slow   complex
##  3 Subj1 Item3 medium simple 
##  4 Subj1 Item4 medium complex
##  5 Subj1 Item5 fast   simple 
##  6 Subj1 Item6 fast   complex
##  7 Subj2 Item1 slow   complex
##  8 Subj2 Item2 medium simple 
##  9 Subj2 Item3 medium complex
## 10 Subj2 Item4 fast   simple 
## # … with 26 more rows
…
will generate codes for 60 subjects and 24 texts.

design6 <- 
  fixed.factor("Speed", levels=c("slow", "medium", "fast")) +
  fixed.factor("Load",  levels=c("simple", "complex")) +
  random.factor("Subj", instances=10) + 
  random.factor("Item", instances=4) +
  random.factor(c("Subj", "Item"), groups=c("Speed", "Load"))

codes6 <- arrange(design.codes(design6), Subj, Item)[c(3, 4, 1, 2)]
codes6

## # A tibble: 1,440 x 4
##    Subj   Item   Speed  Load   
##    <fct>  <fct>  <fct>  <fct>  
##  1 Subj01 Item01 slow   simple 
##  2 Subj01 Item02 slow   complex
##  3 Subj01 Item03 medium simple 
##  4 Subj01 Item04 medium complex
##  5 Subj01 Item05 fast   simple 
##  6 Subj01 Item06 fast   complex
##  7 Subj01 Item07 slow   simple 
##  8 Subj01 Item08 slow   complex
##  9 Subj01 Item09 medium simple 
## 10 Subj01 Item10 medium complex
## # … with 1,430 more rows
…
